MSY管理基準値計算
…
図：est.MSYのis.plot=TRUEで計算完了時に表示される図．Fの強さに対する平衡状態の親魚資源量（左）と漁獲量（右）．推定された管理基準値も表示．

結果の表示

res_MSY$summary_tbにすべての結果が入っています。

# 結果の表示(tibbleという形式で表示され、最初の10行以外は省略されます)
options(tibble.width = Inf)
(refs.all <- res_MSY$summary_tb)
#> # A tibble: 34 x 15
#>    RP_name        AR        SSB SSB2SSB0       B      U  Catch Catch.CV
#>    <chr>          <lgl>   <dbl>    <dbl>   <dbl>  <dbl>  <dbl>    <dbl>
#>  1 MSY            FALSE 123643.   0.254  219105. 0.320  70185.   0.128 
#>  2 B0             FALSE 487099.   1.00   592691. 0.         0. NaN     
#>  3 PGY_0.95_upper FALSE 189206.   0.388  288245. 0.231  66675.   0.113 
#>  4 PGY_0.95_lower FALSE  67751.   0.139  157467. 0.423  66675.   0.149 
#>  5 PGY_0.9_upper  FALSE 218937.   0.449  319118. 0.198  63166.   0.109 
#>  6 PGY_0.9_lower  FALSE  57032.   0.117  142638. 0.443  63165.   0.164 
#>  7 PGY_0.6_upper  FALSE 332089.   0.682  435272. 0.0967 42111.   0.0977
#>  8 PGY_0.6_lower  FALSE  34909.   0.0717  91685. 0.459  42104.   0.428 
#>  9 PGY_0.1_upper  FALSE 463874.   0.952  569179. 0.0123  7023.   0.0911
#> 10 PGY_0.1_lower  FALSE   5486.   0.0113  14752. 0.476   7015.   1.26  
#>    `Fref/Fcur` Fref2Fcurrent      F0     F1     F2     F3 RP.definition
#>          <dbl>         <dbl>   <dbl>  <dbl>  <dbl>  <dbl> <chr>        
#>  1      0.530         0.530  0.260   0.610  0.696  0.696  Btarget0     
#>  2      0.            0.     0.      0.     0.     0.     <NA>         
#>  3      0.327         0.327  0.160   0.376  0.429  0.429  <NA>         
#>  4      0.897         0.897  0.440   1.03   1.18   1.18   <NA>         
#>  5      0.266         0.266  0.130   0.306  0.349  0.349  <NA>         
#>  6      0.994         0.994  0.487   1.14   1.31   1.31   Blow0        
#>  7      0.114         0.114  0.0560  0.131  0.150  0.150  <NA>         
#>  8      1.08          1.08   0.529   1.24   1.42   1.42   Blimit0      
#>  9      0.0133        0.0133 0.00653 0.0153 0.0175 0.0175 <NA>         
#> 10      1.16          1.16   0.567   1.33   1.52   1.52   Bban0        
#> # ... with 24 more rows
…
たとえば目標管理基準値の第一候補はBmsyなのでRP_nameがMSYでARなしの行のRP.definitionには“Btarget0”と入力します

Rコードがちょっと汚いですがご容赦ください。いい方法あったら教えてください。

# どの管理基準値をどのように定義するか。デフォルトから外れる場合はここで定義する
refs.all$RP.definition[refs.all$RP_name=="B0-20%" & refs.all$AR==FALSE] <- "Btarget1"  # たとえばBtargetの代替値としてB020%も候補に残しておきたい場合
refs.all$RP.definition[refs.all$RP_name=="PGY_0.95_lower" & refs.all$AR==FALSE] <- "Btarget2" 
refs.all$RP.definition[refs.all$RP_name=="Ben-19431" & refs.all$AR==FALSE] <- "Bcurrent"
refs.all$RP.definition[refs.all$RP_name=="Ben-63967" & refs.all$AR==FALSE] <- "Bmax"
refs.all$RP.definition[refs.all$RP_name=="Ben-24000" & refs.all$AR==FALSE] <- "Blimit1"
refs.all$RP.definition[refs.all$RP_name=="Ben-51882" & refs.all$AR==FALSE] <- "B_HS"

# 定義した結果を見る
refs.all %>% select(RP_name,RP.definition)
#> # A tibble: 34 x 2
#>    RP_name        RP.definition
#>    <chr>          <chr>        
#>  1 MSY            Btarget0     
#>  2 B0             <NA>         
#>  3 PGY_0.95_upper <NA>         
#>  4 PGY_0.95_lower Btarget2     
#>  5 PGY_0.9_upper  <NA>         
#>  6 PGY_0.9_lower  Blow0        
#>  7 PGY_0.6_upper  <NA>         
#>  8 PGY_0.6_lower  Blimit0      
#>  9 PGY_0.1_upper  <NA>         
#> 10 PGY_0.1_lower  Bban0        
#> # ... with 24 more rows
…
# 例えば2017~2023,28,38年の漁獲量の表を作成する
(catch.table <- kobeII.table %>%
    dplyr::filter(year%in%c(2017:2023,2028,2038),stat=="catch") %>% # 取り出す年とラベル("catch")を選ぶ
    group_by(HCR_name,beta,year) %>%
    summarise(catch.mean=round(mean(value),-3)) %>%  # 値の計算方法を指定（漁獲量の平均ならmean(value)）
                                                     # "-3"とかの値で桁数を指定
    spread(key=year,value=catch.mean) %>% ungroup() %>%
    arrange(HCR_name,desc(beta)) %>% # HCR_nameとbetaの順に並び替え
    mutate(stat_name="catch.mean"))
#> # A tibble: 24 x 12
#>    HCR_name                beta `2017` `2018` `2019` `2020` `2021` `2022`
#>    <chr>                  <dbl>  <dbl>  <dbl>  <dbl>  <dbl>  <dbl>  <dbl>
#>  1 Btarget0-Blimit0-Bban0 1.00  45000. 47000. 31000. 46000. 59000. 66000.
#>  2 Btarget0-Blimit0-Bban0 0.900 45000. 47000. 28000. 44000. 57000. 65000.
#>  3 Btarget0-Blimit0-Bban0 0.800 45000. 47000. 26000. 42000. 55000. 64000.
#>  4 Btarget0-Blimit0-Bban0 0.700 45000. 47000. 23000. 39000. 53000. 62000.
#>  5 Btarget0-Blimit0-Bban0 0.600 45000. 47000. 20000. 35000. 49000. 59000.
#>  6 Btarget0-Blimit0-Bban0 0.500 45000. 47000. 17000. 31000. 45000. 54000.
#>  7 Btarget0-Blimit1-Bban0 1.00  45000. 47000. 31000. 46000. 58000. 65000.
#>  8 Btarget0-Blimit1-Bban0 0.900 45000. 47000. 29000. 44000. 57000. 65000.
#>  9 Btarget0-Blimit1-Bban0 0.800 45000. 47000. 26000. 41000. 55000. 63000.
#> 10 Btarget0-Blimit1-Bban0 0.700 45000. 47000. 24000. 39000. 52000. 61000.
#>    `2023` `2028` `2038` stat_name 
#>     <dbl>  <dbl>  <dbl> <chr>     
#>  1 69000. 70000. 70000. catch.mean
#>  2 68000. 70000. 70000. catch.mean
#>  3 67000. 70000. 70000. catch.mean
#>  4 66000. 69000. 68000. catch.mean
#>  5 63000. 67000. 67000. catch.mean
#>  6 59000. 63000. 63000. catch.mean
#>  7 68000. 70000. 70000. catch.mean
#>  8 68000. 70000. 70000. catch.mean
#>  9 67000. 70000. 70000. catch.mean
#> 10 66000. 69000. 68000. catch.mean
#> # ... with 14 more rows

# 1-currentFに乗じる値=currentFからの努力量の削減率の平均値（実際には確率分布になっている）
(Fsakugen.table <- kobeII.table %>%
    dplyr::filter(year%in%c(2017:2023,2028,2038),stat=="Fsakugen") %>% # 取り出す年とラベル("catch")を選ぶ
    group_by(HCR_name,beta,year) %>%
    summarise(Fsakugen=round(mean(value),2)) %>%
    spread(key=year,value=Fsakugen) %>% ungroup() %>%
    arrange(HCR_name,desc(beta)) %>% # HCR_nameとbetaの順に並び替え
    mutate(stat_name="Fsakugen"))
#> # A tibble: 24 x 12
#>    HCR_name                beta `2017` `2018` `2019` `2020` `2021` `2022`
#>    <chr>                  <dbl>  <dbl>  <dbl>  <dbl>  <dbl>  <dbl>  <dbl>
#>  1 Btarget0-Blimit0-Bban0 1.00      0.     0. -0.510 -0.470 -0.470 -0.470
#>  2 Btarget0-Blimit0-Bban0 0.900     0.     0. -0.560 -0.530 -0.520 -0.520
#>  3 Btarget0-Blimit0-Bban0 0.800     0.     0. -0.610 -0.580 -0.580 -0.580
#>  4 Btarget0-Blimit0-Bban0 0.700     0.     0. -0.660 -0.630 -0.630 -0.630
#>  5 Btarget0-Blimit0-Bban0 0.600     0.     0. -0.700 -0.680 -0.680 -0.680
#>  6 Btarget0-Blimit0-Bban0 0.500     0.     0. -0.750 -0.740 -0.730 -0.730
#>  7 Btarget0-Blimit1-Bban0 1.00      0.     0. -0.480 -0.470 -0.470 -0.470
#>  8 Btarget0-Blimit1-Bban0 0.900     0.     0. -0.530 -0.520 -0.520 -0.520
#>  9 Btarget0-Blimit1-Bban0 0.800     0.     0. -0.580 -0.580 -0.580 -0.580
#> 10 Btarget0-Blimit1-Bban0 0.700     0.     0. -0.640 -0.630 -0.630 -0.630
#>    `2023` `2028` `2038` stat_name
#>     <dbl>  <dbl>  <dbl> <chr>    
#>  1 -0.470 -0.470 -0.470 Fsakugen 
#>  2 -0.520 -0.520 -0.520 Fsakugen 
#>  3 -0.580 -0.580 -0.580 Fsakugen 
#>  4 -0.630 -0.630 -0.630 Fsakugen 
#>  5 -0.680 -0.680 -0.680 Fsakugen 
#>  6 -0.730 -0.730 -0.730 Fsakugen 
#>  7 -0.470 -0.470 -0.470 Fsakugen 
#>  8 -0.520 -0.520 -0.520 Fsakugen 
#>  9 -0.580 -0.580 -0.580 Fsakugen 
#> 10 -0.630 -0.630 -0.630 Fsakugen 
#> # ... with 14 more rows
…
