将来予測
…
                 HCR_Bban=-1, # HCRのBban
                 HCR_year_lag=0, # HCRで何年遅れにするか
                 # SR setting
                 res_SR=res_sr_HSL2, # 将来予測に使いたい再生産関係の推定結果が入っているfit.SRの返り値
                 seed_number=1, # シード番号
                 resid_type="lognormal", # 加入の誤差分布（"lognormal": 対数正規分布、"resample": 残差リサンプリング）
                 resample_year_range=0, # リサンプリングの場合、残差をリサンプリングする年の範囲
                 bias_correction=TRUE, # バイアス補正をするかどうか
                 recruit_intercept=0, # 移入や放流などで一定の加入がある場合に足す加入尾数
                 # Other
                 Pope=res_vpa$input$Pope,
         fix_recruit=list(year=c(2020,2021),rec=c(1000,2000)),
         fix_wcatch=list(year=c(2020,2021),wcatch=c(1000,2000))      
                 ) 
#> # A tibble: 80 x 2
#>    allyear_name allyear_label
#>           <dbl> <chr>        
#>  1         1988 VPA          
#>  2         1989 VPA          
#>  3         1990 VPA          
#>  4         1991 VPA          
#>  5         1992 VPA          
#>  6         1993 VPA          
#>  7         1994 VPA          
#>  8         1995 VPA          
#>  9         1996 VPA          
#> 10         1997 VPA          
#> # … with 70 more rows
…
                 currentF=apply_year_colum(res_vpa$faa,2015:2017),
         futureF=apply_year_colum(res_vpa$faa,2015:2017)*0.6,
                 # HCR setting (not work when using TMB)
                 start_ABC_year_name=2019,
                 # MSEの場合、ABC計算から漁獲量を決め、そのとおりに漁獲するので
                 # 以下のHCRの設定は関係ない                 
                 HCR_beta=0.8, HCR_Blimit=30000, HCR_Bban=0, 
                 HCR_year_lag=0,
                 # SR setting
                 res_SR=res_sr_HSL2, seed_number=1, 
                 resid_type="lognormal", 
                 resample_year_range=0, bias_correction=TRUE, 
                 recruit_intercept=0, 
                 Pope=res_vpa$input$Pope)
#> # A tibble: 40 x 2
#>    allyear_name allyear_label
#>           <dbl> <chr>        
#>  1         1988 VPA          
#>  2         1989 VPA          
#>  3         1990 VPA          
#>  4         1991 VPA          
#>  5         1992 VPA          
#>  6         1993 VPA          
#>  7         1994 VPA          
#>  8         1995 VPA          
#>  9         1996 VPA          
#> 10         1997 VPA          
#> # … with 30 more rows
…
                 currentF=apply_year_colum(res_vpa$faa,2015:2017),
         futureF=apply_year_colum(res_vpa$faa,2015:2017)*0.6,
                 # HCR setting (not work when using TMB)
                 start_ABC_year_name=2019,
                 # ここの管理基準値などを、別の再生産関係などから推定されたものにする
                 HCR_beta=0.8, HCR_Blimit=30000, HCR_Bban=0, 
                 HCR_year_lag=0,
                 # SR setting
                 # ここも真の再生産関係とは異なるものにする
                 res_SR=res_sr_HSL1, seed_number=1, 
                 resid_type="lognormal", 
                 resample_year_range=0, bias_correction=TRUE, 
                 recruit_intercept=0, 
                 Pope=res_vpa$input$Pope)
#> # A tibble: 40 x 2
#>    allyear_name allyear_label
#>           <dbl> <chr>        
#>  1         1988 VPA          
#>  2         1989 VPA          
#>  3         1990 VPA          
#>  4         1991 VPA          
#>  5         1992 VPA          
#>  6         1993 VPA          
#>  7         1994 VPA          
#>  8         1995 VPA          
#>  9         1996 VPA          
#> 10         1997 VPA          
#> # … with 30 more rows

# MSEするとき
res_future_MSE <- future_vpa(tmb_data=data_future_as_true$data, # 真の個体群動態
            do_MSE=TRUE,
                        MSE_input_data=data_future_for_ABC, # ABC計算用の個体群動態
                        optim_method="none", # "none"にする
                        multi_init = 1)
#> # A tibble: 40 x 2
#>    allyear_name allyear_label
#>           <dbl> <chr>        
#>  1         1988 VPA          
#>  2         1989 VPA          
#>  3         1990 VPA          
#>  4         1991 VPA          
#>  5         1992 VPA          
#>  6         1993 VPA          
#>  7         1994 VPA          
#>  8         1995 VPA          
#>  9         1996 VPA          
#> 10         1997 VPA          
#> # … with 30 more rows
…
#> 32 - 17 
#> 32 - 18 
#> 32 - 19 
#> 32 - 20 
#> 32 - 21 
#> 32 - 22 
#> 32 - 23 
#> 32 - 24 
#> 32 - 25 
#> 32 - 26 
#> 32 - 27 
#> 32 - 28 
#> 32 - 29 
#> 32 - 30 
#> # A tibble: 40 x 2
#>    allyear_name allyear_label
#>           <dbl> <chr>        
#>  1         1988 VPA          
#>  2         1989 VPA          
#>  3         1990 VPA          
#>  4         1991 VPA          
#>  5         1992 VPA          
#>  6         1993 VPA          
#>  7         1994 VPA          
#>  8         1995 VPA          
#>  9         1996 VPA          
#> 10         1997 VPA          
#> # … with 30 more rows
…
#> 33 - 17 
#> 33 - 18 
#> 33 - 19 
#> 33 - 20 
#> 33 - 21 
#> 33 - 22 
#> 33 - 23 
#> 33 - 24 
#> 33 - 25 
#> 33 - 26 
#> 33 - 27 
#> 33 - 28 
#> 33 - 29 
#> 33 - 30 
#> # A tibble: 40 x 2
#>    allyear_name allyear_label
#>           <dbl> <chr>        
#>  1         1988 VPA          
#>  2         1989 VPA          
#>  3         1990 VPA          
#>  4         1991 VPA          
#>  5         1992 VPA          
#>  6         1993 VPA          
#>  7         1994 VPA          
#>  8         1995 VPA          
#>  9         1996 VPA          
#> 10         1997 VPA          
#> # … with 30 more rows
…
#> 34 - 17 
#> 34 - 18 
#> 34 - 19 
#> 34 - 20 
#> 34 - 21 
#> 34 - 22 
#> 34 - 23 
#> 34 - 24 
#> 34 - 25 
#> 34 - 26 
#> 34 - 27 
#> 34 - 28 
#> 34 - 29 
#> 34 - 30 
#> # A tibble: 40 x 2
#>    allyear_name allyear_label
#>           <dbl> <chr>        
#>  1         1988 VPA          
#>  2         1989 VPA          
#>  3         1990 VPA          
#>  4         1991 VPA          
#>  5         1992 VPA          
#>  6         1993 VPA          
#>  7         1994 VPA          
#>  8         1995 VPA          
#>  9         1996 VPA          
#> 10         1997 VPA          
#> # … with 30 more rows
…
#> 35 - 17 
#> 35 - 18 
#> 35 - 19 
#> 35 - 20 
#> 35 - 21 
#> 35 - 22 
#> 35 - 23 
#> 35 - 24 
#> 35 - 25 
#> 35 - 26 
#> 35 - 27 
#> 35 - 28 
#> 35 - 29 
#> 35 - 30 
#> # A tibble: 40 x 2
#>    allyear_name allyear_label
#>           <dbl> <chr>        
#>  1         1988 VPA          
#>  2         1989 VPA          
#>  3         1990 VPA          
#>  4         1991 VPA          
#>  5         1992 VPA          
#>  6         1993 VPA          
#>  7         1994 VPA          
#>  8         1995 VPA          
#>  9         1996 VPA          
#> 10         1997 VPA          
#> # … with 30 more rows
…
#> 36 - 17 
#> 36 - 18 
#> 36 - 19 
#> 36 - 20 
#> 36 - 21 
#> 36 - 22 
#> 36 - 23 
#> 36 - 24 
#> 36 - 25 
#> 36 - 26 
#> 36 - 27 
#> 36 - 28 
#> 36 - 29 
#> 36 - 30 
#> # A tibble: 40 x 2
#>    allyear_name allyear_label
#>           <dbl> <chr>        
#>  1         1988 VPA          
#>  2         1989 VPA          
#>  3         1990 VPA          
#>  4         1991 VPA          
#>  5         1992 VPA          
#>  6         1993 VPA          
#>  7         1994 VPA          
#>  8         1995 VPA          
#>  9         1996 VPA          
#> 10         1997 VPA          
#> # … with 30 more rows
…
#> 37 - 17 
#> 37 - 18 
#> 37 - 19 
#> 37 - 20 
#> 37 - 21 
#> 37 - 22 
#> 37 - 23 
#> 37 - 24 
#> 37 - 25 
#> 37 - 26 
#> 37 - 27 
#> 37 - 28 
#> 37 - 29 
#> 37 - 30 
#> # A tibble: 40 x 2
#>    allyear_name allyear_label
#>           <dbl> <chr>        
#>  1         1988 VPA          
#>  2         1989 VPA          
#>  3         1990 VPA          
#>  4         1991 VPA          
#>  5         1992 VPA          
#>  6         1993 VPA          
#>  7         1994 VPA          
#>  8         1995 VPA          
#>  9         1996 VPA          
#> 10         1997 VPA          
#> # … with 30 more rows
…
#> 38 - 17 
#> 38 - 18 
#> 38 - 19 
#> 38 - 20 
#> 38 - 21 
#> 38 - 22 
#> 38 - 23 
#> 38 - 24 
#> 38 - 25 
#> 38 - 26 
#> 38 - 27 
#> 38 - 28 
#> 38 - 29 
#> 38 - 30 
#> # A tibble: 40 x 2
#>    allyear_name allyear_label
#>           <dbl> <chr>        
#>  1         1988 VPA          
#>  2         1989 VPA          
#>  3         1990 VPA          
#>  4         1991 VPA          
#>  5         1992 VPA          
#>  6         1993 VPA          
#>  7         1994 VPA          
#>  8         1995 VPA          
#>  9         1996 VPA          
#> 10         1997 VPA          
#> # … with 30 more rows
…
#> 39 - 17 
#> 39 - 18 
#> 39 - 19 
#> 39 - 20 
#> 39 - 21 
#> 39 - 22 
#> 39 - 23 
#> 39 - 24 
#> 39 - 25 
#> 39 - 26 
#> 39 - 27 
#> 39 - 28 
#> 39 - 29 
#> 39 - 30 
#> # A tibble: 40 x 2
#>    allyear_name allyear_label
#>           <dbl> <chr>        
#>  1         1988 VPA          
#>  2         1989 VPA          
#>  3         1990 VPA          
#>  4         1991 VPA          
#>  5         1992 VPA          
#>  6         1993 VPA          
#>  7         1994 VPA          
#>  8         1995 VPA          
#>  9         1996 VPA          
#> 10         1997 VPA          
#> # … with 30 more rows
…
### MSEプログラムが想定通り動いているかの確認
dummy_future <- data_future_as_true
# 将来予測の加入の確率変動をゼロにする→全く同じ再生産関係を使えば、同じ結果になるはず
dummy_future$data$SR_mat[,,"deviance"] <- 0
dummy_future$data$SR_mat[,,"rand_resid"] <- 0
dummy_future$input$res_SR$pars$sd <- 0

res_test1 <- future_vpa(tmb_data=dummy_future$data, 
            do_MSE=TRUE,
                      MSE_input_data=dummy_future, 
                  optim_method="none", 
                              multi_init = 1)
#> # A tibble: 40 x 2
#>    allyear_name allyear_label
#>           <dbl> <chr>        
#>  1         1988 VPA          
#>  2         1989 VPA          
#>  3         1990 VPA          
#>  4         1991 VPA          
#>  5         1992 VPA          
#>  6         1993 VPA          
#>  7         1994 VPA          
#>  8         1995 VPA          
#>  9         1996 VPA          
#> 10         1997 VPA          
#> # … with 30 more rows
…
#> 32 - 17 
#> 32 - 18 
#> 32 - 19 
#> 32 - 20 
#> 32 - 21 
#> 32 - 22 
#> 32 - 23 
#> 32 - 24 
#> 32 - 25 
#> 32 - 26 
#> 32 - 27 
#> 32 - 28 
#> 32 - 29 
#> 32 - 30 
#> # A tibble: 40 x 2
#>    allyear_name allyear_label
#>           <dbl> <chr>        
#>  1         1988 VPA          
#>  2         1989 VPA          
#>  3         1990 VPA          
#>  4         1991 VPA          
#>  5         1992 VPA          
#>  6         1993 VPA          
#>  7         1994 VPA          
#>  8         1995 VPA          
#>  9         1996 VPA          
#> 10         1997 VPA          
#> # … with 30 more rows
…
#> 33 - 17 
#> 33 - 18 
#> 33 - 19 
#> 33 - 20 
#> 33 - 21 
#> 33 - 22 
#> 33 - 23 
#> 33 - 24 
#> 33 - 25 
#> 33 - 26 
#> 33 - 27 
#> 33 - 28 
#> 33 - 29 
#> 33 - 30 
#> # A tibble: 40 x 2
#>    allyear_name allyear_label
#>           <dbl> <chr>        
#>  1         1988 VPA          
#>  2         1989 VPA          
#>  3         1990 VPA          
#>  4         1991 VPA          
#>  5         1992 VPA          
#>  6         1993 VPA          
#>  7         1994 VPA          
#>  8         1995 VPA          
#>  9         1996 VPA          
#> 10         1997 VPA          
#> # … with 30 more rows
…
#> 34 - 17 
#> 34 - 18 
#> 34 - 19 
#> 34 - 20 
#> 34 - 21 
#> 34 - 22 
#> 34 - 23 
#> 34 - 24 
#> 34 - 25 
#> 34 - 26 
#> 34 - 27 
#> 34 - 28 
#> 34 - 29 
#> 34 - 30 
#> # A tibble: 40 x 2
#>    allyear_name allyear_label
#>           <dbl> <chr>        
#>  1         1988 VPA          
#>  2         1989 VPA          
#>  3         1990 VPA          
#>  4         1991 VPA          
#>  5         1992 VPA          
#>  6         1993 VPA          
#>  7         1994 VPA          
#>  8         1995 VPA          
#>  9         1996 VPA          
#> 10         1997 VPA          
#> # … with 30 more rows
…
#> 35 - 17 
#> 35 - 18 
#> 35 - 19 
#> 35 - 20 
#> 35 - 21 
#> 35 - 22 
#> 35 - 23 
#> 35 - 24 
#> 35 - 25 
#> 35 - 26 
#> 35 - 27 
#> 35 - 28 
#> 35 - 29 
#> 35 - 30 
#> # A tibble: 40 x 2
#>    allyear_name allyear_label
#>           <dbl> <chr>        
#>  1         1988 VPA          
#>  2         1989 VPA          
#>  3         1990 VPA          
#>  4         1991 VPA          
#>  5         1992 VPA          
#>  6         1993 VPA          
#>  7         1994 VPA          
#>  8         1995 VPA          
#>  9         1996 VPA          
#> 10         1997 VPA          
#> # … with 30 more rows
…
#> 36 - 17 
#> 36 - 18 
#> 36 - 19 
#> 36 - 20 
#> 36 - 21 
#> 36 - 22 
#> 36 - 23 
#> 36 - 24 
#> 36 - 25 
#> 36 - 26 
#> 36 - 27 
#> 36 - 28 
#> 36 - 29 
#> 36 - 30 
#> # A tibble: 40 x 2
#>    allyear_name allyear_label
#>           <dbl> <chr>        
#>  1         1988 VPA          
#>  2         1989 VPA          
#>  3         1990 VPA          
#>  4         1991 VPA          
#>  5         1992 VPA          
#>  6         1993 VPA          
#>  7         1994 VPA          
#>  8         1995 VPA          
#>  9         1996 VPA          
#> 10         1997 VPA          
#> # … with 30 more rows
…
#> 37 - 17 
#> 37 - 18 
#> 37 - 19 
#> 37 - 20 
#> 37 - 21 
#> 37 - 22 
#> 37 - 23 
#> 37 - 24 
#> 37 - 25 
#> 37 - 26 
#> 37 - 27 
#> 37 - 28 
#> 37 - 29 
#> 37 - 30 
#> # A tibble: 40 x 2
#>    allyear_name allyear_label
#>           <dbl> <chr>        
#>  1         1988 VPA          
#>  2         1989 VPA          
#>  3         1990 VPA          
#>  4         1991 VPA          
#>  5         1992 VPA          
#>  6         1993 VPA          
#>  7         1994 VPA          
#>  8         1995 VPA          
#>  9         1996 VPA          
#> 10         1997 VPA          
#> # … with 30 more rows
…
#> 38 - 17 
#> 38 - 18 
#> 38 - 19 
#> 38 - 20 
#> 38 - 21 
#> 38 - 22 
#> 38 - 23 
#> 38 - 24 
#> 38 - 25 
#> 38 - 26 
#> 38 - 27 
#> 38 - 28 
#> 38 - 29 
#> 38 - 30 
#> # A tibble: 40 x 2
#>    allyear_name allyear_label
#>           <dbl> <chr>        
#>  1         1988 VPA          
#>  2         1989 VPA          
#>  3         1990 VPA          
#>  4         1991 VPA          
#>  5         1992 VPA          
#>  6         1993 VPA          
#>  7         1994 VPA          
#>  8         1995 VPA          
#>  9         1996 VPA          
#> 10         1997 VPA          
#> # … with 30 more rows
…
#> 39 - 17 
#> 39 - 18 
#> 39 - 19 
#> 39 - 20 
#> 39 - 21 
#> 39 - 22 
#> 39 - 23 
#> 39 - 24 
#> 39 - 25 
#> 39 - 26 
#> 39 - 27 
#> 39 - 28 
#> 39 - 29 
#> 39 - 30 
#> # A tibble: 40 x 2
#>    allyear_name allyear_label
#>           <dbl> <chr>        
#>  1         1988 VPA          
#>  2         1989 VPA          
#>  3         1990 VPA          
#>  4         1991 VPA          
#>  5         1992 VPA          
#>  6         1993 VPA          
#>  7         1994 VPA          
#>  8         1995 VPA          
#>  9         1996 VPA          
#> 10         1997 VPA          
#> # … with 30 more rows
…
